{
  "status": 0,
  "hasError": false,
  "data": {
      "recordList": [
          {
              "activityId": "abc",
              "pointIdStr": "te",
              "pointName": "COCA",
              "stage": "201903130911",
              "title": "星巴克限量版樱花杯套组",
              "coverImageUrl": "https://f10.baidu.com/it/u=1230594473,2222196705&fm=72",
              "activityStatusEnum": 0,
              "totalCount": 1000,
              "applyCount": 900,
              "leftCount": 100,
              "count": 10,
              "drawNumbers": "1000089;1000088;1000087;1000086",
              "isWin": 0,
              "luckyNumber": "1000012",
              "luckyUserName": "abc",
              "drawTime": "2019.03.11 09:09:09"
          },
          {
              "activityId": "def",
              "pointIdStr": "te",
              "pointName": "NOMY",
              "stage": "201903130912",
              "title": "星巴克限量版樱花杯套组",
              "coverImageUrl": "https://f10.baidu.com/it/u=1230594473,2222196705&fm=72",
              "activityStatusEnum": 1,
              "totalCount": 1000,
              "applyCount": 900,
              "leftCount": 100,
              "count": 10,
              "drawNumbers": "1000089;1000088;1000087;1000086;1000089;1000088;1000087;1000086",
              "isWin": 0,
              "luckyNumber": "1000012",
              "luckyUserName": "def",
              "drawTime": "2019.03.20 09:09:09"
          },
          {
              "activityId": "hijk",
              "pointIdStr": "te",
              "pointName": "COCA",
              "stage": "201903130911",
              "title": "星巴克限量版樱花杯套组",
              "coverImageUrl": "https://f10.baidu.com/it/u=1230594473,2222196705&fm=72",
              "activityStatusEnum": 2,
              "totalCount": 3000,
              "applyCount": 2100,
              "leftCount": 900,
              "count": 20,
              "drawNumbers": "1000089;1000088;1000087;1000086",
              "isWin": 1,
              "luckyNumber": "1000012",
              "luckyUserName": "hijk",
              "drawTime": "2019.03.11 09:09:09"
          },
          {
              "activityId": "opq",
              "pointIdStr": "te",
              "pointName": "COCA",
              "stage": "201903130911",
              "title": "星巴克限量版樱花杯套组",
              "coverImageUrl": "https://f10.baidu.com/it/u=1230594473,2222196705&fm=72",
              "activityStatusEnum": 0,
              "totalCount": 1000,
              "applyCount": 900,
              "leftCount": 100,
              "count": 10,
              "drawNumbers": "1000089;1000088;1000087;1000086",
              "isWin": 1,
              "luckyNumber": "1000012",
              "luckyUserName": "opq",
              "drawTime": "2019.03.11 09:09:09"
          },
          {
            "activityId": "opq",
            "pointIdStr": "te",
            "pointName": "COCA",
            "stage": "201903130911",
            "title": "星巴克限量版樱花杯套组",
            "coverImageUrl": "https://f10.baidu.com/it/u=1230594473,2222196705&fm=72",
            "activityStatusEnum": 2,
            "totalCount": 1000,
            "applyCount": 900,
            "leftCount": 100,
            "count": 10,
            "drawNumbers": "1000089;1000088;1000087;1000086",
            "isWin": 0,
            "luckyNumber": "1000012",
            "luckyUserName": "opq",
            "drawTime": "2019.03.11 09:09:09"
        }
      ],
      "hasMore": true,
      "pageNo": 0,
      "pageCount": 0,
      "pageSize": 0,
      "totalCount": 0,
      "lastId": "",
      "result": 1,
      "msg": "",
      "errorCode": 0,
      "errorMessage": "",
      "extraValue": ""
  },
  "serverTimestamp": 1552545173949
}